{
    "__comment": "Model generated using MrCrayfish's Model Creator (http://mrcrayfish.com/modelcreator/)",
    "textures": {
        "0": "blocks/anvil_base"
    },
    "elements": [
        {
            "name": "Barrel",
            "from": [ 7.0, 7.0, 2.0 ], 
            "to": [ 9.0, 9.0, 14.0 ], 
            "faces": {
                "north": { "texture": "#0", "uv": [ 4.0, 4.0, 6.0, 6.0 ] },
                "east": { "texture": "#0", "uv": [ 4.0, 6.0, 16.0, 8.0 ] },
                "south": { "texture": "#0", "uv": [ 6.0, 6.0, 8.0, 8.0 ] },
                "west": { "texture": "#0", "uv": [ 1.0, 4.0, 13.0, 6.0 ] },
                "up": { "texture": "#0", "uv": [ 4.0, 0.0, 6.0, 12.0 ] },
                "down": { "texture": "#0", "uv": [ 9.0, 14.0, 6.0, 3.0 ] }
            }
        },
        {
            "name": "Trigger",
            "from": [ 7.699999995529652, 6.200000002980232, 9.0 ], 
            "to": [ 8.299999989569187, 7.0, 9.599999994039536 ], 
            "faces": {
                "north": { "texture": "#0", "uv": [ 0.0, 0.0, 0.5999999940395355, 0.7999999970197678 ] },
                "east": { "texture": "#0", "uv": [ 0.0, 0.0, 0.5999999940395355, 0.7999999970197678 ] },
                "south": { "texture": "#0", "uv": [ 0.0, 0.0, 0.5999999940395355, 0.7999999970197678 ] },
                "west": { "texture": "#0", "uv": [ 0.0, 0.0, 0.5999999940395355, 0.7999999970197678 ] },
                "up": { "texture": "#0", "uv": [ 0.0, 0.0, 0.5999999940395355, 0.5999999940395355 ] },
                "down": { "texture": "#0", "uv": [ 0.0, 0.0, 0.5999999940395355, 0.5999999940395355 ] }
            }
        },
        {
            "name": "Arm Side 1",
            "from": [ 8.699999995529652, 6.200000002980232, 13.0 ], 
            "to": [ 8.899999983608723, 7.0, 13.599999994039536 ], 
            "faces": {
                "north": { "texture": "#0", "uv": [ 0.0, 0.0, 0.19999998807907104, 0.7999999970197678 ] },
                "east": { "texture": "#0", "uv": [ 0.0, 0.0, 0.5999999940395355, 0.7999999970197678 ] },
                "south": { "texture": "#0", "uv": [ 0.0, 0.0, 0.19999998807907104, 0.7999999970197678 ] },
                "west": { "texture": "#0", "uv": [ 0.0, 0.0, 0.5999999940395355, 0.7999999970197678 ] },
                "up": { "texture": "#0", "uv": [ 0.0, 0.0, 0.19999998807907104, 0.5999999940395355 ] },
                "down": { "texture": "#0", "uv": [ 0.0, 0.0, 0.19999998807907104, 0.5999999940395355 ] }
            }
        },
        {
            "name": "Arm Side 2",
            "from": [ 7.100000001490116, 6.200000002980232, 13.0 ], 
            "to": [ 7.299999989569187, 7.0, 13.599999994039536 ], 
            "faces": {
                "north": { "texture": "#0", "uv": [ 0.0, 0.0, 0.19999998807907104, 0.7999999970197678 ] },
                "east": { "texture": "#0", "uv": [ 0.0, 0.0, 0.5999999940395355, 0.7999999970197678 ] },
                "south": { "texture": "#0", "uv": [ 0.0, 0.0, 0.19999998807907104, 0.7999999970197678 ] },
                "west": { "texture": "#0", "uv": [ 0.0, 0.0, 0.5999999940395355, 0.7999999970197678 ] },
                "up": { "texture": "#0", "uv": [ 0.0, 0.0, 0.19999998807907104, 0.5999999940395355 ] },
                "down": { "texture": "#0", "uv": [ 0.0, 0.0, 0.19999998807907104, 0.5999999940395355 ] }
            }
        }
    ]
}